…
```r
print(lab_data_original)
```

```
## # A tibble: 100 x 4
##    lab_id                    run              compound_a compound_b
##    <chr>                     <chr>            <chr>      <chr>     
##  1 External_sample_code_0001 Run_1-20/03/2019 <10.0      61.036    
##  2 External_sample_code_0002 Run_1-20/03/2019 53.932     52.153    
##  3 External_sample_code_0003 Run_1-20/03/2019 18.131     46.935    
##  4 External_sample_code_0004 Run_1-20/03/2019 40.785     84.442    
##  5 External_sample_code_0005 Run_1-20/03/2019 27.876     <20.5     
##  6 External_sample_code_0006 Run_1-20/03/2019 15.819     169.253   
##  7 External_sample_code_0007 Run_1-20/03/2019 13.12      59.478    
##  8 External_sample_code_0008 Run_1-20/03/2019 <10.0      30.057    
##  9 External_sample_code_0009 Run_1-20/03/2019 <10.0      <20.5     
## 10 External_sample_code_0010 Run_1-20/03/2019 <10.0      36.951    
## # … with 90 more rows
```
…
Let's start with the ID. We need to extract our ID (e.g. *0001*) from the `lab_id` colum. 

For that we are going to `mutate()` the dataset to create a `sample_id` variable. For that we are going to use the `{stringr}` function `str_extract()`


```r
lab_data <- lab_data_original %>% 
  mutate(sample_id = str_extract(lab_id, "(?<=External_sample_code_)[:digit:]+")) %>% 
  select(sample_id, everything())

print(lab_data)
```

```
## # A tibble: 100 x 5
##    sample_id lab_id                    run              compound_a compound_b
##    <chr>     <chr>                     <chr>            <chr>      <chr>     
##  1 0001      External_sample_code_0001 Run_1-20/03/2019 <10.0      61.036    
##  2 0002      External_sample_code_0002 Run_1-20/03/2019 53.932     52.153    
##  3 0003      External_sample_code_0003 Run_1-20/03/2019 18.131     46.935    
##  4 0004      External_sample_code_0004 Run_1-20/03/2019 40.785     84.442    
##  5 0005      External_sample_code_0005 Run_1-20/03/2019 27.876     <20.5     
##  6 0006      External_sample_code_0006 Run_1-20/03/2019 15.819     169.253   
##  7 0007      External_sample_code_0007 Run_1-20/03/2019 13.12      59.478    
##  8 0008      External_sample_code_0008 Run_1-20/03/2019 <10.0      30.057    
##  9 0009      External_sample_code_0009 Run_1-20/03/2019 <10.0      <20.5     
## 10 0010      External_sample_code_0010 Run_1-20/03/2019 <10.0      36.951    
## # … with 90 more rows
```
…
Another way of doing it:



```r
lab_data_original %>% 
  mutate(sample_id = str_extract(lab_id, "[:digit:]+")) %>% 
    select(sample_id, everything())
```

```
## # A tibble: 100 x 5
##    sample_id lab_id                    run              compound_a compound_b
##    <chr>     <chr>                     <chr>            <chr>      <chr>     
##  1 0001      External_sample_code_0001 Run_1-20/03/2019 <10.0      61.036    
##  2 0002      External_sample_code_0002 Run_1-20/03/2019 53.932     52.153    
##  3 0003      External_sample_code_0003 Run_1-20/03/2019 18.131     46.935    
##  4 0004      External_sample_code_0004 Run_1-20/03/2019 40.785     84.442    
##  5 0005      External_sample_code_0005 Run_1-20/03/2019 27.876     <20.5     
##  6 0006      External_sample_code_0006 Run_1-20/03/2019 15.819     169.253   
##  7 0007      External_sample_code_0007 Run_1-20/03/2019 13.12      59.478    
##  8 0008      External_sample_code_0008 Run_1-20/03/2019 <10.0      30.057    
##  9 0009      External_sample_code_0009 Run_1-20/03/2019 <10.0      <20.5     
## 10 0010      External_sample_code_0010 Run_1-20/03/2019 <10.0      36.951    
## # … with 90 more rows
```
…
In this case this works because our sample ID is the only digit  select(sample_id, everything())
   s there, but if there are other characters, we need to be more precise, hence the previous aproach.


### Splitting the run and analysis_date info


```r
lab_data %>% 
  mutate(run_date = str_extract(run, "(?<=-)[:graph:]*")) %>%
  mutate(run = str_extract(run, "[:graph:]*(?=-)"))
```

```
## # A tibble: 100 x 6
##    sample_id lab_id                    run   compound_a compound_b run_date  
##    <chr>     <chr>                     <chr> <chr>      <chr>      <chr>     
##  1 0001      External_sample_code_0001 Run_1 <10.0      61.036     20/03/2019
##  2 0002      External_sample_code_0002 Run_1 53.932     52.153     20/03/2019
##  3 0003      External_sample_code_0003 Run_1 18.131     46.935     20/03/2019
##  4 0004      External_sample_code_0004 Run_1 40.785     84.442     20/03/2019
##  5 0005      External_sample_code_0005 Run_1 27.876     <20.5      20/03/2019
##  6 0006      External_sample_code_0006 Run_1 15.819     169.253    20/03/2019
##  7 0007      External_sample_code_0007 Run_1 13.12      59.478     20/03/2019
##  8 0008      External_sample_code_0008 Run_1 <10.0      30.057     20/03/2019
##  9 0009      External_sample_code_0009 Run_1 <10.0      <20.5      20/03/2019
## 10 0010      External_sample_code_0010 Run_1 <10.0      36.951     20/03/2019
## # … with 90 more rows
```
…
One aproach that can be followed is to change the samples below the Limit od Detection (LOD) for a zero:


```r
lab_data %>% 
  pivot_longer(cols = c(compound_a, compound_b), 
               names_to = "compound", 
               values_to = "concentration") %>% 
  mutate(concentration = str_replace(concentration, "^<[:graph:]*", "0")) %>% 
  mutate(concentration = as.numeric(concentration))
```

```
## # A tibble: 200 x 5
##    sample_id lab_id                    run              compound   concentration
##    <chr>     <chr>                     <chr>            <chr>              <dbl>
##  1 0001      External_sample_code_0001 Run_1-20/03/2019 compound_a           0  
##  2 0001      External_sample_code_0001 Run_1-20/03/2019 compound_b          61.0
##  3 0002      External_sample_code_0002 Run_1-20/03/2019 compound_a          53.9
##  4 0002      External_sample_code_0002 Run_1-20/03/2019 compound_b          52.2
##  5 0003      External_sample_code_0003 Run_1-20/03/2019 compound_a          18.1
##  6 0003      External_sample_code_0003 Run_1-20/03/2019 compound_b          46.9
##  7 0004      External_sample_code_0004 Run_1-20/03/2019 compound_a          40.8
##  8 0004      External_sample_code_0004 Run_1-20/03/2019 compound_b          84.4
##  9 0005      External_sample_code_0005 Run_1-20/03/2019 compound_a          27.9
## 10 0005      External_sample_code_0005 Run_1-20/03/2019 compound_b           0  
## # … with 190 more rows
```
…
```r
lab_data %>% 
  pivot_longer(cols = c(compound_a, compound_b), 
               names_to = "compound", 
               values_to = "concentration") %>% 
  mutate(lod = str_extract(concentration, "(?<=<)[:graph:]*")) %>%    # extract the LOD value sinto their own column
  mutate(lod = as.numeric(lod)) %>%  # we need to calculate the LOD/2, so we need it to be a number
  mutate(concentration = str_replace(concentration, "^<[:graph:]*", as.character(lod/2))) %>%  # same as before but now we replace with LOD/2. Additional "problem", because here we are working with strings, if we try to give it a number, it doesnt like it, so we need to soround that LOD/2 by that "as.character()"
  mutate(concentration = as.numeric(concentration)) # Now it can all be converted to numbers again!
```

```
## # A tibble: 200 x 6
##    sample_id lab_id                 run            compound  concentration   lod
##    <chr>     <chr>                  <chr>          <chr>             <dbl> <dbl>
##  1 0001      External_sample_code_… Run_1-20/03/2… compound…           5    10  
##  2 0001      External_sample_code_… Run_1-20/03/2… compound…          61.0  NA  
##  3 0002      External_sample_code_… Run_1-20/03/2… compound…          53.9  NA  
##  4 0002      External_sample_code_… Run_1-20/03/2… compound…          52.2  NA  
##  5 0003      External_sample_code_… Run_1-20/03/2… compound…          18.1  NA  
##  6 0003      External_sample_code_… Run_1-20/03/2… compound…          46.9  NA  
##  7 0004      External_sample_code_… Run_1-20/03/2… compound…          40.8  NA  
##  8 0004      External_sample_code_… Run_1-20/03/2… compound…          84.4  NA  
##  9 0005      External_sample_code_… Run_1-20/03/2… compound…          27.9  NA  
## 10 0005      External_sample_code_… Run_1-20/03/2… compound…          10.2  20.5
## # … with 190 more rows
```
…
For very good reasons, column names nee dto adhere to the [Tydiverse Style Guide](https://style.tidyverse.org/) (i.e. no spaces, all lower case, etc). However, that means that every time we use `pivor_longer()` we end up with very *unfriendly* values for our paremeters, compounds, etc. Now that they are not column names and that they will most likely be used in figures or tables, we can format these to look *nicer*.


```r
lab_data %>% 
  pivot_longer(cols = c(compound_a, compound_b), 
               names_to = "compound", 
               values_to = "concentration") %>% 
  mutate(compound = str_replace(compound, "_", " ")) %>%  # We replace the underscore for a space
  mutate(compound = str_to_title(compound)) # We apply a title format (capitalize each word)
```

```
## # A tibble: 200 x 5
##    sample_id lab_id                    run              compound   concentration
##    <chr>     <chr>                     <chr>            <chr>      <chr>        
##  1 0001      External_sample_code_0001 Run_1-20/03/2019 Compound A <10.0        
##  2 0001      External_sample_code_0001 Run_1-20/03/2019 Compound B 61.036       
##  3 0002      External_sample_code_0002 Run_1-20/03/2019 Compound A 53.932       
##  4 0002      External_sample_code_0002 Run_1-20/03/2019 Compound B 52.153       
##  5 0003      External_sample_code_0003 Run_1-20/03/2019 Compound A 18.131       
##  6 0003      External_sample_code_0003 Run_1-20/03/2019 Compound B 46.935       
##  7 0004      External_sample_code_0004 Run_1-20/03/2019 Compound A 40.785       
##  8 0004      External_sample_code_0004 Run_1-20/03/2019 Compound B 84.442       
##  9 0005      External_sample_code_0005 Run_1-20/03/2019 Compound A 27.876       
## 10 0005      External_sample_code_0005 Run_1-20/03/2019 Compound B <20.5        
## # … with 190 more rows
```
…
```r
lab_data %>% 
  pivot_longer(cols = c(compound_a, compound_b), 
               names_to = "compound", 
               values_to = "concentration") %>% 
  mutate(compound = str_replace(compound, "_", " ")) %>%  # We replace the underscore for a space
  mutate(compound = str_to_title(compound)) %>%  # We apply a title format (capitalize each word)
  mutate(compound = case_when(
    compound == "Compound A" ~ "Naphthalene",
    compound == "Compound B" ~ "Benzene"
  ))
```

```
## # A tibble: 200 x 5
##    sample_id lab_id                    run              compound   concentration
##    <chr>     <chr>                     <chr>            <chr>      <chr>        
##  1 0001      External_sample_code_0001 Run_1-20/03/2019 Naphthale… <10.0        
##  2 0001      External_sample_code_0001 Run_1-20/03/2019 Benzene    61.036       
##  3 0002      External_sample_code_0002 Run_1-20/03/2019 Naphthale… 53.932       
##  4 0002      External_sample_code_0002 Run_1-20/03/2019 Benzene    52.153       
##  5 0003      External_sample_code_0003 Run_1-20/03/2019 Naphthale… 18.131       
##  6 0003      External_sample_code_0003 Run_1-20/03/2019 Benzene    46.935       
##  7 0004      External_sample_code_0004 Run_1-20/03/2019 Naphthale… 40.785       
##  8 0004      External_sample_code_0004 Run_1-20/03/2019 Benzene    84.442       
##  9 0005      External_sample_code_0005 Run_1-20/03/2019 Naphthale… 27.876       
## 10 0005      External_sample_code_0005 Run_1-20/03/2019 Benzene    <20.5        
## # … with 190 more rows
```
